[gd_scene load_steps=2 format=2]

[sub_resource type="StreamTexture" id=2]
flags = 7
load_path = "res://.import/violet_frame.png-87830372cca8a5ac122306709e6d8376.s3tc.stex"

[node name="celilo" type="TextureRect"]
visible = false
margin_left = 796.335
margin_top = 58.9282
margin_right = 846.335
margin_bottom = 108.928
texture = SubResource( 2 )
expand = true
__meta__ = {
"_edit_use_anchors_": false
}

[node name="label" type="Label" parent="."]
anchor_top = 1.0
anchor_bottom = 1.0
margin_left = -7.0
margin_top = 13.0
margin_right = 70.0
margin_bottom = 47.0
