[gd_scene load_steps=2 format=2]

[ext_resource path="res://blokoj/kosmosxipoj/scenoj/baseSpaceship/engines.glb" type="PackedScene" id=1]

[node name="engines" instance=ExtResource( 1 )]

[node name="engines" parent="." index="0"]
transform = Transform( -1.62921e-07, 0, -1, 0, 1, 0, 1, 0, -1.62921e-07, -3.654, 0.45, 10 )
