[gd_scene load_steps=3 format=2]

[ext_resource path="res://blokoj/asteroidoj/resursoj/ast_1.glb" type="PackedScene" id=2]

[sub_resource type="ConcavePolygonShape" id=1]
data = PoolVector3Array( -7.3119, 9.9064, -6.9309, -4.1019, 10.928, -6.797, -5.2438, 13.0688, -0.9582, 0.0587, 12.1107, -6.3844, 6.1248, 13.2603, -4.0079, 2.3724, 12.9829, -1.9731, 0.0587, 12.1107, -6.3844, 2.3724, 12.9829, -1.9731, -0.4042, 13.5454, 0.9856, -8.2051, 9.9615, -4.0574, -7.3119, 9.9064, -6.9309, -5.2438, 13.0688, -0.9582, -0.4042, 13.5454, 0.9856, 2.3724, 12.9829, -1.9731, 2.3298, 12.3303, 2.1538, -8.2051, 9.9615, -4.0574, -5.2438, 13.0688, -0.9582, -8.6185, 11.1784, 1.9278, 2.3298, 12.3303, 2.1538, 5.372, 13.7399, 0.7891, 4.0545, 12.2507, 4.0964, 4.0545, 12.2507, 4.0964, 5.372, 13.7399, 0.7891, 6.4745, 11.8992, 5.7891, -0.4042, 13.5454, 0.9856, -0.2052, 11.9662, 5.2992, -3.1443, 12.4574, 4.8205, -0.2052, 11.9662, 5.2992, 4.0545, 12.2507, 4.0964, 0.802, 10.3522, 8.764, -6.7053, 9.8255, 5.1815, -3.1443, 12.4574, 4.8205, -4.14, 9.8395, 8.4077, -5.134, 8.6259, -9.7476, -4.1019, 10.928, -6.797, -7.3119, 9.9064, -6.9309, -10.0353, 7.348, 4.3784, -8.6185, 11.1784, 1.9278, -6.7053, 9.8255, 5.1815, -6.7053, 9.8255, 5.1815, -4.14, 9.8395, 8.4077, -5.9815, 7.8376, 9.781, -0.2052, 11.9662, 5.2992, 0.802, 10.3522, 8.764, -4.14, 9.8395, 8.4077, 0.802, 10.3522, 8.764, 6.4745, 11.8992, 5.7891, 4.0072, 8.664, 9.6208, 5.372, 13.7399, 0.7891, 11.0872, 11.2553, -1.9586, 11.32, 9.0605, 5.7078, 6.1248, 13.2603, -4.0079, 8.3094, 11.5652, -7.5866, 11.0872, 11.2553, -1.9586, 4.7579, 5.2681, 13.4022, 8.0674, -1.1547, 12.1557, 5.4916, -1.1257, 12.8397, 9.2156, 4.979, 8.4058, 8.0674, -1.1547, 12.1557, 4.7579, 5.2681, 13.4022, 9.2156, 4.979, 8.4058, 4.7579, 5.2681, 13.4022, 4.0072, 8.664, 9.6208, 5.4916, -1.1257, 12.8397, 6.7691, -7.9589, 12.5925, 3.5455, -3.9495, 13.0693, 4.7579, 5.2681, 13.4022, 5.4916, -1.1257, 12.8397, 2.7043, 2.2045, 14.1226, 2.7043, 2.2045, 14.1226, 3.5455, -3.9495, 13.0693, 1.4751, -1.1452, 13.9033, 4.7579, 5.2681, 13.4022, 2.7043, 2.2045, 14.1226, -1.5853, 1.4385, 13.7916, 3.5455, -3.9495, 13.0693, 3.167, -9.5545, 11.0015, -0.8997, -7.0569, 13.4712, 1.4751, -1.1452, 13.9033, 3.5455, -3.9495, 13.0693, 0.4372, -3.0254, 14.7871, 2.7043, 2.2045, 14.1226, 1.4751, -1.1452, 13.9033, -1.5853, 1.4385, 13.7916, -1.5853, 1.4385, 13.7916, 1.4751, -1.1452, 13.9033, 0.4372, -3.0254, 14.7871, -3.2009, -2.5147, 14.4063, 0.4372, -3.0254, 14.7871, -3.8972, -5.5658, 12.9411, -1.5853, 1.4385, 13.7916, -3.2009, -2.5147, 14.4063, -6.8978, -0.7736, 12.0283, -5.9815, 7.8376, 9.781, -1.5853, 1.4385, 13.7916, -10.0212, 2.3043, 10.0747, -2.6102, 6.2692, 11.4247, -1.5853, 1.4385, 13.7916, -5.9815, 7.8376, 9.781, 11.6153, -9.2017, 8.4324, 8.7419, -10.0619, 7.9361, 9.9668, -7.5107, 10.37, 9.9668, -7.5107, 10.37, 8.7419, -10.0619, 7.9361, 6.1468, -10.425, 10.5591, 9.2156, 4.979, 8.4058, 11.9328, 2.3029, 8.6889, 8.0674, -1.1547, 12.1557, 11.9328, 2.3029, 8.6889, 9.9668, -7.5107, 10.37, 8.0674, -1.1547, 12.1557, 11.32, 9.0605, 5.7078, 9.2156, 4.979, 8.4058, 4.0072, 8.664, 9.6208, -4.14, 9.8395, 8.4077, -2.6102, 6.2692, 11.4247, -5.9815, 7.8376, 9.781, -5.9815, 7.8376, 9.781, -10.9146, 3.8143, 6.4778, -8.6709, 7.2103, 6.8173, -6.8978, -0.7736, 12.0283, -3.8972, -5.5658, 12.9411, -9.6996, -2.7831, 10.2468, -3.8972, -5.5658, 12.9411, -3.8818, -7.3017, 11.4562, -8.155, -5.8899, 11.2981, -0.8997, -7.0569, 13.4712, -3.8818, -7.3017, 11.4562, -3.8972, -5.5658, 12.9411, -0.8997, -7.0569, 13.4712, -0.5021, -9.9502, 9.9651, -3.8818, -7.3017, 11.4562, 6.1468, -10.425, 10.5591, 3.167, -9.5545, 11.0015, 6.7691, -7.9589, 12.5925, -9.6996, -2.7831, 10.2468, -8.155, -5.8899, 11.2981, -10.5681, -5.7046, 6.8991, -10.0353, 7.348, 4.3784, -10.9146, 3.8143, 6.4778, -13.1304, 5.0646, 1.2249, -12.0201, 6.8997, -0.0534, -10.0353, 7.348, 4.3784, -13.1304, 5.0646, 1.2249, -15.3349, -3.3068, 1.8051, -10.5681, -5.7046, 6.8991, -15.0216, -5.2752, 0.1845, -13.1304, 5.0646, 1.2249, -14.3226, -0.009, 2.5233, -15.3315, 1.2352, -1.0443, -15.0216, -5.2752, 0.1845, -11.7836, -10.253, 0.0428, -15.4579, -7.5908, -0.8571, -15.3315, 1.2352, -1.0443, -15.3349, -3.3068, 1.8051, -16.2757, -0.813, -4.465, -13.1304, 5.0646, 1.2249, -15.3315, 1.2352, -1.0443, -12.0201, 6.8997, -0.0534, -15.3315, 1.2352, -1.0443, -16.2757, -0.813, -4.465, -16.0273, 0.9694, -5.7904, -12.0201, 6.8997, -0.0534, -15.3315, 1.2352, -1.0443, -13.9615, 4.0794, -6.3599, -16.2757, -0.813, -4.465, -15.4579, -7.5908, -0.8571, -14.6176, -5.4884, -6.3675, -8.2051, 9.9615, -4.0574, -12.0201, 6.8997, -0.0534, -13.9615, 4.0794, -6.3599, -3.8818, -7.3017, 11.4562, -7.6697, -8.7065, 10.2527, -8.155, -5.8899, 11.2981, -10.9146, 3.8143, 6.4778, -10.0212, 2.3043, 10.0747, -11.1197, -2.102, 6.7139, -6.7053, 9.8255, 5.1815, -8.6709, 7.2103, 6.8173, -10.0353, 7.348, 4.3784, -8.6185, 11.1784, 1.9278, -10.0353, 7.348, 4.3784, -10.6036, 9.4517, 1.5352, -10.6036, 9.4517, 1.5352, -12.0201, 6.8997, -0.0534, -8.2051, 9.9615, -4.0574, -14.2111, -8.5831, -3.1139, -12.559, -8.9566, -5.8445, -14.6176, -5.4884, -6.3675, -14.2111, -8.5831, -3.1139, -13.1198, -10.7272, -2.9368, -12.559, -8.9566, -5.8445, -15.4579, -7.5908, -0.8571, -11.7836, -10.253, 0.0428, -14.2111, -8.5831, -3.1139, -10.5681, -5.7046, 6.8991, -6.165, -11.5262, 7.5803, -8.8863, -12.6281, 2.8969, 1.4798, -15.0046, -2.9061, -4.3162, -14.8217, -4.8444, -4.038, -15.7946, -2.6932, 0.351, -12.1331, -6.4748, 1.4798, -15.0046, -2.9061, 2.4695, -10.836, -5.1614, -4.038, -15.7946, -2.6932, -9.0328, -13.9079, -1.9156, -4.9938, -15.3061, 2.1069, -4.038, -15.7946, -2.6932, -1.2086, -16.0264, -0.5323, 1.4798, -15.0046, -2.9061, 4.2628, -12.6053, -3.4652, 1.4798, -15.0046, -2.9061, 6.9115, -13.4531, -2.5957, 4.2628, -12.6053, -3.4652, 6.9115, -13.4531, -2.5957, 7.9433, -11.9001, -3.9223, -1.2086, -16.0264, -0.5323, -4.038, -15.7946, -2.6932, -4.9938, -15.3061, 2.1069, 1.4798, -15.0046, -2.9061, 2.4396, -15.1122, 2.1621, 6.9115, -13.4531, -2.5957, -4.9938, -15.3061, 2.1069, -0.6307, -11.617, 6.7168, 0.3793, -13.456, 4.1615, 2.4396, -15.1122, 2.1621, 2.9038, -12.519, 4.8022, 4.3731, -13.74, 3.2823, -0.6307, -11.617, 6.7168, -4.3191, -13.7609, 5.2834, -0.5021, -9.9502, 9.9651, -4.3191, -13.7609, 5.2834, -6.165, -11.5262, 7.5803, -0.5021, -9.9502, 9.9651, 2.9038, -12.519, 4.8022, 0.3793, -13.456, 4.1615, -0.6307, -11.617, 6.7168, 2.9038, -12.519, 4.8022, -0.6307, -11.617, 6.7168, 4.0423, -11.7916, 9.2357, 2.9038, -12.519, 4.8022, 4.0423, -11.7916, 9.2357, 5.6669, -12.1266, 6.3771, -3.3569, -11.5713, -9.2753, -8.3657, -13.4463, -5.3208, -4.3162, -14.8217, -4.8444, 0.351, -12.1331, -6.4748, -3.3569, -11.5713, -9.2753, -4.3162, -14.8217, -4.8444, -4.3162, -14.8217, -4.8444, 1.4798, -15.0046, -2.9061, 0.351, -12.1331, -6.4748, 0.351, -12.1331, -6.4748, 2.4695, -10.836, -5.1614, 4.7754, -10.9411, -8.0245, 7.2758, -9.242, -9.0082, 4.7754, -10.9411, -8.0245, 8.2911, -9.1663, -7.5403, 8.2911, -9.1663, -7.5403, 4.7754, -10.9411, -8.0245, 9.3609, -10.2107, -6.2099, 4.7754, -10.9411, -8.0245, 7.9433, -11.9001, -3.9223, 9.3609, -10.2107, -6.2099, 6.9115, -13.4531, -2.5957, 4.3731, -13.74, 3.2823, 8.9381, -13.2254, -1.1543, 5.6669, -12.1266, 6.3771, 6.1468, -10.425, 10.5591, 8.7419, -10.0619, 7.9361, 5.6669, -12.1266, 6.3771, 4.0423, -11.7916, 9.2357, 6.1468, -10.425, 10.5591, -0.5021, -9.9502, 9.9651, -7.6697, -8.7065, 10.2527, -3.8818, -7.3017, 11.4562, -8.8863, -12.6281, 2.8969, -11.7836, -10.253, 0.0428, -10.5681, -5.7046, 6.8991, -9.0328, -13.9079, -1.9156, -13.1198, -10.7272, -2.9368, -11.7836, -10.253, 0.0428, -10.375, -11.7166, -4.2855, -12.559, -8.9566, -5.8445, -13.1198, -10.7272, -2.9368, 8.1338, -5.676, -10.8812, 8.2911, -9.1663, -7.5403, 11.9137, -2.463, -8.5638, 11.9888, 4.0042, -10.4941, 13.5578, 3.4032, -8.4467, 12.0596, 6.9791, -9.5646, 8.2911, -9.1663, -7.5403, 9.3609, -10.2107, -6.2099, 12.7054, -6.0959, -4.4628, 9.3609, -10.2107, -6.2099, 7.9433, -11.9001, -3.9223, 12.7054, -6.0959, -4.4628, 11.9137, -2.463, -8.5638, 8.2911, -9.1663, -7.5403, 12.7054, -6.0959, -4.4628, 11.2084, -0.9056, -9.5756, 13.4824, -0.5916, -5.3575, 13.5578, 3.4032, -8.4467, 7.9433, -11.9001, -3.9223, 11.4136, -11.7579, -1.5409, 13.4596, -7.9956, -1.9531, 12.7054, -6.0959, -4.4628, 13.4596, -7.9956, -1.9531, 14.346, 2.3681, -3.6649, 13.4596, -7.9956, -1.9531, 15.1718, -3.3121, 2.4231, 14.346, 2.3681, -3.6649, 14.346, 2.3681, -3.6649, 15.1718, -3.3121, 2.4231, 13.6512, 4.9964, -2.2657, 13.6512, 4.9964, -2.2657, 15.4248, 4.5016, 2.7645, 12.9518, 9.3901, -1.8498, 13.4596, -7.9956, -1.9531, 13.0115, -9.8001, 1.9138, 15.1718, -3.3121, 2.4231, 13.6512, 4.9964, -2.2657, 15.1718, -3.3121, 2.4231, 15.4248, 4.5016, 2.7645, 13.0115, -9.8001, 1.9138, 11.4136, -11.7579, -1.5409, 10.3443, -11.0972, 6.3151, 13.9747, -5.6513, 6.7412, 13.0115, -9.8001, 1.9138, 11.6153, -9.2017, 8.4324, 15.1718, -3.3121, 2.4231, 13.9747, -5.6513, 6.7412, 13.4701, -1.8571, 8.2705, 15.1718, -3.3121, 2.4231, 13.4701, -1.8571, 8.2705, 15.4248, 4.5016, 2.7645, 11.9888, 4.0042, -10.4941, 8.9416, 4.7716, -11.2102, 11.2084, -0.9056, -9.5756, 8.9416, 4.7716, -11.2102, 11.9888, 4.0042, -10.4941, 8.5295, 7.7386, -10.9957, 8.5295, 7.7386, -10.9957, 12.0596, 6.9791, -9.5646, 8.3094, 11.5652, -7.5866, 6.213, 11.6387, -8.4326, 8.5295, 7.7386, -10.9957, 8.3094, 11.5652, -7.5866, 8.3094, 11.5652, -7.5866, 12.0596, 6.9791, -9.5646, 11.0872, 11.2553, -1.9586, 11.0872, 11.2553, -1.9586, 12.4342, 8.0544, -5.4981, 12.9518, 9.3901, -1.8498, 11.32, 9.0605, 5.7078, 11.9328, 2.3029, 8.6889, 9.2156, 4.979, 8.4058, 11.4136, -11.7579, -1.5409, 8.9381, -13.2254, -1.1543, 10.3443, -11.0972, 6.3151, 6.9115, -13.4531, -2.5957, 8.9381, -13.2254, -1.1543, 11.4136, -11.7579, -1.5409, -5.134, 8.6259, -9.7476, -10.9946, 4.3565, -10.1222, -5.9289, 7.2368, -11.8937, -12.7881, -4.1204, -10.0418, -7.9987, -9.3568, -10.473, -9.1568, -5.3528, -12.1611, -13.6333, -0.6918, -9.1147, -12.7881, -4.1204, -10.0418, -9.283, 3.6713, -12.5778, -12.7881, -4.1204, -10.0418, -9.1568, -5.3528, -12.1611, -7.732, -0.195, -14.0326, -9.1713, -11.3259, -8.0392, -3.3569, -11.5713, -9.2753, -7.9987, -9.3568, -10.473, -5.9289, 7.2368, -11.8937, -9.283, 3.6713, -12.5778, -2.0598, 4.4063, -13.153, -9.1568, -5.3528, -12.1611, -2.5767, -3.5147, -13.8223, -7.732, -0.195, -14.0326, -0.7303, 8.5474, -10.7121, -2.0598, 4.4063, -13.153, 1.8502, 6.3966, -12.048, 2.6935, 1.7297, -14.2597, -2.5767, -3.5147, -13.8223, 2.3121, -4.024, -14.3314, -2.0598, 4.4063, -13.153, -2.5767, -3.5147, -13.8223, 2.6935, 1.7297, -14.2597, 1.8502, 6.3966, -12.048, -2.0598, 4.4063, -13.153, 2.6935, 1.7297, -14.2597, 1.9629, -7.773, -13.8934, 2.9622, -9.8633, -10.7146, 5.1539, -6.3388, -12.3654, 2.3121, -4.024, -14.3314, 1.9629, -7.773, -13.8934, 5.1539, -6.3388, -12.3654, 4.8939, 8.0654, -11.2145, 2.6935, 1.7297, -14.2597, 7.0843, 4.134, -12.4345, 0.0587, 12.1107, -6.3844, -5.2438, 13.0688, -0.9582, -4.1019, 10.928, -6.797, -0.4042, 13.5454, 0.9856, -5.2438, 13.0688, -0.9582, 0.0587, 12.1107, -6.3844, -11.08, 5.6046, -7.8348, -13.6333, -0.6918, -9.1147, -10.9946, 4.3565, -10.1222, -4.1019, 10.928, -6.797, -5.134, 8.6259, -9.7476, -0.7303, 8.5474, -10.7121, -0.7303, 8.5474, -10.7121, 4.8939, 8.0654, -11.2145, 3.3567, 11.2255, -7.2559, 3.3567, 11.2255, -7.2559, 4.8939, 8.0654, -11.2145, 6.213, 11.6387, -8.4326, 4.7754, -10.9411, -8.0245, 7.2758, -9.242, -9.0082, 2.9622, -9.8633, -10.7146, -8.3657, -13.4463, -5.3208, -3.3569, -11.5713, -9.2753, -9.1713, -11.3259, -8.0392, 6.213, 11.6387, -8.4326, 6.1248, 13.2603, -4.0079, 3.3567, 11.2255, -7.2559, 6.213, 11.6387, -8.4326, 8.3094, 11.5652, -7.5866, 6.1248, 13.2603, -4.0079, 3.3567, 11.2255, -7.2559, 6.1248, 13.2603, -4.0079, 0.0587, 12.1107, -6.3844, -8.6185, 11.1784, 1.9278, -3.1443, 12.4574, 4.8205, -6.7053, 9.8255, 5.1815, -5.2438, 13.0688, -0.9582, -3.1443, 12.4574, 4.8205, -8.6185, 11.1784, 1.9278, 2.3724, 12.9829, -1.9731, 6.1248, 13.2603, -4.0079, 5.372, 13.7399, 0.7891, 2.3724, 12.9829, -1.9731, 5.372, 13.7399, 0.7891, 2.3298, 12.3303, 2.1538, -14.3226, -0.009, 2.5233, -11.1197, -2.102, 6.7139, -12.7746, -2.6819, 4.6127, -14.3226, -0.009, 2.5233, -10.9146, 3.8143, 6.4778, -11.1197, -2.102, 6.7139, -0.4042, 13.5454, 0.9856, -3.1443, 12.4574, 4.8205, -5.2438, 13.0688, -0.9582, 2.3298, 12.3303, 2.1538, -0.2052, 11.9662, 5.2992, -0.4042, 13.5454, 0.9856, 2.3298, 12.3303, 2.1538, 4.0545, 12.2507, 4.0964, -0.2052, 11.9662, 5.2992, 4.0545, 12.2507, 4.0964, 6.4745, 11.8992, 5.7891, 0.802, 10.3522, 8.764, -0.2052, 11.9662, 5.2992, -4.14, 9.8395, 8.4077, -3.1443, 12.4574, 4.8205, -0.7303, 8.5474, -10.7121, 3.3567, 11.2255, -7.2559, 0.0587, 12.1107, -6.3844, 0.0587, 12.1107, -6.3844, -4.1019, 10.928, -6.797, -0.7303, 8.5474, -10.7121, -8.2051, 9.9615, -4.0574, -8.6185, 11.1784, 1.9278, -10.6036, 9.4517, 1.5352, -6.7053, 9.8255, 5.1815, -5.9815, 7.8376, 9.781, -8.6709, 7.2103, 6.8173, 6.4745, 11.8992, 5.7891, 11.32, 9.0605, 5.7078, 4.0072, 8.664, 9.6208, 11.32, 9.0605, 5.7078, 6.4745, 11.8992, 5.7891, 5.372, 13.7399, 0.7891, 6.1248, 13.2603, -4.0079, 11.0872, 11.2553, -1.9586, 5.372, 13.7399, 0.7891, 9.9668, -7.5107, 10.37, 6.1468, -10.425, 10.5591, 6.7691, -7.9589, 12.5925, 9.9668, -7.5107, 10.37, 6.7691, -7.9589, 12.5925, 7.9254, -5.5657, 12.4616, 8.0674, -1.1547, 12.1557, 7.9254, -5.5657, 12.4616, 5.4916, -1.1257, 12.8397, 7.9254, -5.5657, 12.4616, 6.7691, -7.9589, 12.5925, 5.4916, -1.1257, 12.8397, 4.7579, 5.2681, 13.4022, 0.802, 10.3522, 8.764, 4.0072, 8.664, 9.6208, 6.7691, -7.9589, 12.5925, 3.167, -9.5545, 11.0015, 3.5455, -3.9495, 13.0693, 5.4916, -1.1257, 12.8397, 3.5455, -3.9495, 13.0693, 2.7043, 2.2045, 14.1226, 0.802, 10.3522, 8.764, 4.7579, 5.2681, 13.4022, -2.6102, 6.2692, 11.4247, 3.5455, -3.9495, 13.0693, -0.8997, -7.0569, 13.4712, 0.4372, -3.0254, 14.7871, 4.7579, 5.2681, 13.4022, -1.5853, 1.4385, 13.7916, -2.6102, 6.2692, 11.4247, 0.4372, -3.0254, 14.7871, -3.2009, -2.5147, 14.4063, -1.5853, 1.4385, 13.7916, 0.4372, -3.0254, 14.7871, -0.8997, -7.0569, 13.4712, -3.8972, -5.5658, 12.9411, -3.2009, -2.5147, 14.4063, -3.8972, -5.5658, 12.9411, -6.8978, -0.7736, 12.0283, 9.9668, -7.5107, 10.37, 7.9254, -5.5657, 12.4616, 8.0674, -1.1547, 12.1557, 0.802, 10.3522, 8.764, -2.6102, 6.2692, 11.4247, -4.14, 9.8395, 8.4077, -10.0212, 2.3043, 10.0747, -10.9146, 3.8143, 6.4778, -5.9815, 7.8376, 9.781, -1.5853, 1.4385, 13.7916, -6.8978, -0.7736, 12.0283, -10.0212, 2.3043, 10.0747, -3.8972, -5.5658, 12.9411, -8.155, -5.8899, 11.2981, -9.6996, -2.7831, 10.2468, 3.167, -9.5545, 11.0015, -0.5021, -9.9502, 9.9651, -0.8997, -7.0569, 13.4712, -8.155, -5.8899, 11.2981, -7.6697, -8.7065, 10.2527, -10.5681, -5.7046, 6.8991, -9.6996, -2.7831, 10.2468, -10.5681, -5.7046, 6.8991, -11.1197, -2.102, 6.7139, -8.6709, 7.2103, 6.8173, -10.9146, 3.8143, 6.4778, -10.0353, 7.348, 4.3784, -11.1197, -2.102, 6.7139, -10.5681, -5.7046, 6.8991, -12.7746, -2.6819, 4.6127, -4.3162, -14.8217, -4.8444, -9.0328, -13.9079, -1.9156, -4.038, -15.7946, -2.6932, -8.3657, -13.4463, -5.3208, -9.0328, -13.9079, -1.9156, -4.3162, -14.8217, -4.8444, -10.9146, 3.8143, 6.4778, -14.3226, -0.009, 2.5233, -13.1304, 5.0646, 1.2249, -12.7746, -2.6819, 4.6127, -10.5681, -5.7046, 6.8991, -15.3349, -3.3068, 1.8051, -10.5681, -5.7046, 6.8991, -11.7836, -10.253, 0.0428, -15.0216, -5.2752, 0.1845, -12.7746, -2.6819, 4.6127, -15.3349, -3.3068, 1.8051, -14.3226, -0.009, 2.5233, -14.3226, -0.009, 2.5233, -15.3349, -3.3068, 1.8051, -15.3315, 1.2352, -1.0443, -10.0353, 7.348, 4.3784, -12.0201, 6.8997, -0.0534, -10.6036, 9.4517, 1.5352, -15.3349, -3.3068, 1.8051, -15.0216, -5.2752, 0.1845, -16.2757, -0.813, -4.465, -15.0216, -5.2752, 0.1845, -15.4579, -7.5908, -0.8571, -16.2757, -0.813, -4.465, -15.3315, 1.2352, -1.0443, -16.0273, 0.9694, -5.7904, -13.9615, 4.0794, -6.3599, -15.4579, -7.5908, -0.8571, -14.2111, -8.5831, -3.1139, -14.6176, -5.4884, -6.3675, -16.2757, -0.813, -4.465, -14.6176, -5.4884, -6.3675, -16.0273, 0.9694, -5.7904, -6.8978, -0.7736, 12.0283, -9.6996, -2.7831, 10.2468, -10.0212, 2.3043, 10.0747, -10.0212, 2.3043, 10.0747, -9.6996, -2.7831, 10.2468, -11.1197, -2.102, 6.7139, -8.2051, 9.9615, -4.0574, -13.9615, 4.0794, -6.3599, -7.3119, 9.9064, -6.9309, -13.9615, 4.0794, -6.3599, -11.08, 5.6046, -7.8348, -7.3119, 9.9064, -6.9309, -16.0273, 0.9694, -5.7904, -13.6333, -0.6918, -9.1147, -13.9615, 4.0794, -6.3599, -13.9615, 4.0794, -6.3599, -13.6333, -0.6918, -9.1147, -11.08, 5.6046, -7.8348, -14.6176, -5.4884, -6.3675, -13.6333, -0.6918, -9.1147, -16.0273, 0.9694, -5.7904, -11.7836, -10.253, 0.0428, -13.1198, -10.7272, -2.9368, -14.2111, -8.5831, -3.1139, -6.165, -11.5262, 7.5803, -10.5681, -5.7046, 6.8991, -7.6697, -8.7065, 10.2527, -8.3657, -13.4463, -5.3208, -10.375, -11.7166, -4.2855, -9.0328, -13.9079, -1.9156, 4.7754, -10.9411, -8.0245, 4.2628, -12.6053, -3.4652, 7.9433, -11.9001, -3.9223, 4.7754, -10.9411, -8.0245, 2.4695, -10.836, -5.1614, 4.2628, -12.6053, -3.4652, 1.4798, -15.0046, -2.9061, 4.2628, -12.6053, -3.4652, 2.4695, -10.836, -5.1614, -8.8863, -12.6281, 2.8969, -4.3191, -13.7609, 5.2834, -4.9938, -15.3061, 2.1069, -8.8863, -12.6281, 2.8969, -6.165, -11.5262, 7.5803, -4.3191, -13.7609, 5.2834, -9.0328, -13.9079, -1.9156, -8.8863, -12.6281, 2.8969, -4.9938, -15.3061, 2.1069, -1.2086, -16.0264, -0.5323, 2.4396, -15.1122, 2.1621, 1.4798, -15.0046, -2.9061, 5.6669, -12.1266, 6.3771, 10.3443, -11.0972, 6.3151, 4.3731, -13.74, 3.2823, 8.7419, -10.0619, 7.9361, 10.3443, -11.0972, 6.3151, 5.6669, -12.1266, 6.3771, -1.2086, -16.0264, -0.5323, -4.9938, -15.3061, 2.1069, 0.3793, -13.456, 4.1615, -1.2086, -16.0264, -0.5323, 0.3793, -13.456, 4.1615, 2.4396, -15.1122, 2.1621, 2.4396, -15.1122, 2.1621, 4.3731, -13.74, 3.2823, 6.9115, -13.4531, -2.5957, -4.3191, -13.7609, 5.2834, -0.6307, -11.617, 6.7168, -4.9938, -15.3061, 2.1069, 0.3793, -13.456, 4.1615, 2.9038, -12.519, 4.8022, 2.4396, -15.1122, 2.1621, -6.165, -11.5262, 7.5803, -7.6697, -8.7065, 10.2527, -0.5021, -9.9502, 9.9651, 2.9038, -12.519, 4.8022, 5.6669, -12.1266, 6.3771, 4.3731, -13.74, 3.2823, 14.346, 2.3681, -3.6649, 13.5578, 3.4032, -8.4467, 13.4824, -0.5916, -5.3575, 12.4342, 8.0544, -5.4981, 13.5578, 3.4032, -8.4467, 14.346, 2.3681, -3.6649, -9.1713, -11.3259, -8.0392, -10.375, -11.7166, -4.2855, -8.3657, -13.4463, -5.3208, 4.3731, -13.74, 3.2823, 10.3443, -11.0972, 6.3151, 8.9381, -13.2254, -1.1543, 4.0423, -11.7916, 9.2357, 3.167, -9.5545, 11.0015, 6.1468, -10.425, 10.5591, -0.6307, -11.617, 6.7168, 3.167, -9.5545, 11.0015, 4.0423, -11.7916, 9.2357, -0.6307, -11.617, 6.7168, -0.5021, -9.9502, 9.9651, 3.167, -9.5545, 11.0015, -9.0328, -13.9079, -1.9156, -11.7836, -10.253, 0.0428, -8.8863, -12.6281, 2.8969, -10.375, -11.7166, -4.2855, -13.1198, -10.7272, -2.9368, -9.0328, -13.9079, -1.9156, 11.9888, 4.0042, -10.4941, 11.2084, -0.9056, -9.5756, 13.5578, 3.4032, -8.4467, 12.7054, -6.0959, -4.4628, 13.4824, -0.5916, -5.3575, 11.9137, -2.463, -8.5638, 11.9137, -2.463, -8.5638, 13.4824, -0.5916, -5.3575, 11.2084, -0.9056, -9.5756, 13.5578, 3.4032, -8.4467, 12.4342, 8.0544, -5.4981, 12.0596, 6.9791, -9.5646, -1.3824, -9.1703, -13.411, -9.1568, -5.3528, -12.1611, -7.9987, -9.3568, -10.473, -2.5767, -3.5147, -13.8223, -9.1568, -5.3528, -12.1611, -1.3824, -9.1703, -13.411, 7.9433, -11.9001, -3.9223, 13.4596, -7.9956, -1.9531, 12.7054, -6.0959, -4.4628, 12.7054, -6.0959, -4.4628, 14.346, 2.3681, -3.6649, 13.4824, -0.5916, -5.3575, 14.346, 2.3681, -3.6649, 13.6512, 4.9964, -2.2657, 12.4342, 8.0544, -5.4981, 12.4342, 8.0544, -5.4981, 13.6512, 4.9964, -2.2657, 12.9518, 9.3901, -1.8498, 13.4596, -7.9956, -1.9531, 11.4136, -11.7579, -1.5409, 13.0115, -9.8001, 1.9138, 13.0115, -9.8001, 1.9138, 13.9747, -5.6513, 6.7412, 15.1718, -3.3121, 2.4231, 15.4248, 4.5016, 2.7645, 11.32, 9.0605, 5.7078, 12.9518, 9.3901, -1.8498, 13.0115, -9.8001, 1.9138, 10.3443, -11.0972, 6.3151, 11.6153, -9.2017, 8.4324, 7.2758, -9.242, -9.0082, 8.2911, -9.1663, -7.5403, 8.1338, -5.676, -10.8812, 11.2084, -0.9056, -9.5756, 8.1338, -5.676, -10.8812, 11.9137, -2.463, -8.5638, 11.9888, 4.0042, -10.4941, 12.0596, 6.9791, -9.5646, 8.5295, 7.7386, -10.9957, 12.0596, 6.9791, -9.5646, 12.4342, 8.0544, -5.4981, 11.0872, 11.2553, -1.9586, 11.0872, 11.2553, -1.9586, 12.9518, 9.3901, -1.8498, 11.32, 9.0605, 5.7078, 13.4701, -1.8571, 8.2705, 11.9328, 2.3029, 8.6889, 15.4248, 4.5016, 2.7645, 15.4248, 4.5016, 2.7645, 11.9328, 2.3029, 8.6889, 11.32, 9.0605, 5.7078, 13.9747, -5.6513, 6.7412, 11.6153, -9.2017, 8.4324, 9.9668, -7.5107, 10.37, 13.9747, -5.6513, 6.7412, 9.9668, -7.5107, 10.37, 13.4701, -1.8571, 8.2705, 13.4701, -1.8571, 8.2705, 9.9668, -7.5107, 10.37, 11.9328, 2.3029, 8.6889, 10.3443, -11.0972, 6.3151, 8.7419, -10.0619, 7.9361, 11.6153, -9.2017, 8.4324, 6.9115, -13.4531, -2.5957, 11.4136, -11.7579, -1.5409, 7.9433, -11.9001, -3.9223, -10.9946, 4.3565, -10.1222, -13.6333, -0.6918, -9.1147, -9.283, 3.6713, -12.5778, -10.9946, 4.3565, -10.1222, -9.283, 3.6713, -12.5778, -5.9289, 7.2368, -11.8937, -9.1713, -11.3259, -8.0392, -7.9987, -9.3568, -10.473, -12.7881, -4.1204, -10.0418, -12.7881, -4.1204, -10.0418, -7.732, -0.195, -14.0326, -9.283, 3.6713, -12.5778, -5.134, 8.6259, -9.7476, -5.9289, 7.2368, -11.8937, -0.7303, 8.5474, -10.7121, -9.283, 3.6713, -12.5778, -7.732, -0.195, -14.0326, -2.0598, 4.4063, -13.153, -5.9289, 7.2368, -11.8937, -2.0598, 4.4063, -13.153, -0.7303, 8.5474, -10.7121, -3.3569, -11.5713, -9.2753, -1.3824, -9.1703, -13.411, -7.9987, -9.3568, -10.473, 1.9629, -7.773, -13.8934, -2.5767, -3.5147, -13.8223, -1.3824, -9.1703, -13.411, 2.3121, -4.024, -14.3314, -2.5767, -3.5147, -13.8223, 1.9629, -7.773, -13.8934, -7.732, -0.195, -14.0326, -2.5767, -3.5147, -13.8223, -2.0598, 4.4063, -13.153, 11.2084, -0.9056, -9.5756, 7.0843, 4.134, -12.4345, 5.5461, -1.6427, -14.281, 8.9416, 4.7716, -11.2102, 7.0843, 4.134, -12.4345, 11.2084, -0.9056, -9.5756, 1.8502, 6.3966, -12.048, 2.6935, 1.7297, -14.2597, 4.8939, 8.0654, -11.2145, -0.7303, 8.5474, -10.7121, 1.8502, 6.3966, -12.048, 4.8939, 8.0654, -11.2145, 2.9622, -9.8633, -10.7146, 1.9629, -7.773, -13.8934, -1.3824, -9.1703, -13.411, 2.6935, 1.7297, -14.2597, 2.3121, -4.024, -14.3314, 5.5461, -1.6427, -14.281, 2.3121, -4.024, -14.3314, 5.1539, -6.3388, -12.3654, 5.5461, -1.6427, -14.281, 2.6935, 1.7297, -14.2597, 5.5461, -1.6427, -14.281, 7.0843, 4.134, -12.4345, 4.8939, 8.0654, -11.2145, 7.0843, 4.134, -12.4345, 8.9416, 4.7716, -11.2102, -12.559, -8.9566, -5.8445, -12.7881, -4.1204, -10.0418, -14.6176, -5.4884, -6.3675, -14.6176, -5.4884, -6.3675, -12.7881, -4.1204, -10.0418, -13.6333, -0.6918, -9.1147, -11.08, 5.6046, -7.8348, -10.9946, 4.3565, -10.1222, -5.134, 8.6259, -9.7476, -11.08, 5.6046, -7.8348, -5.134, 8.6259, -9.7476, -7.3119, 9.9064, -6.9309, 4.8939, 8.0654, -11.2145, 8.9416, 4.7716, -11.2102, 8.5295, 7.7386, -10.9957, 4.8939, 8.0654, -11.2145, 8.5295, 7.7386, -10.9957, 6.213, 11.6387, -8.4326, 8.1338, -5.676, -10.8812, 5.5461, -1.6427, -14.281, 5.1539, -6.3388, -12.3654, 11.2084, -0.9056, -9.5756, 5.5461, -1.6427, -14.281, 8.1338, -5.676, -10.8812, 7.2758, -9.242, -9.0082, 5.1539, -6.3388, -12.3654, 2.9622, -9.8633, -10.7146, 8.1338, -5.676, -10.8812, 5.1539, -6.3388, -12.3654, 7.2758, -9.242, -9.0082, 4.7754, -10.9411, -8.0245, -1.3824, -9.1703, -13.411, 0.351, -12.1331, -6.4748, 2.9622, -9.8633, -10.7146, -1.3824, -9.1703, -13.411, 4.7754, -10.9411, -8.0245, 0.351, -12.1331, -6.4748, -1.3824, -9.1703, -13.411, -3.3569, -11.5713, -9.2753, -12.559, -8.9566, -5.8445, -9.1713, -11.3259, -8.0392, -12.7881, -4.1204, -10.0418, -10.375, -11.7166, -4.2855, -9.1713, -11.3259, -8.0392, -12.559, -8.9566, -5.8445 )

[node name="ast_1" instance=ExtResource( 2 )]

[node name="StaticBody" type="StaticBody" parent="ast_1" index="0"]
collision_mask = 0

[node name="CollisionShape" type="CollisionShape" parent="ast_1/StaticBody" index="0"]
shape = SubResource( 1 )
