[gd_scene load_steps=3 format=2]

[ext_resource path="res://kerno/fenestroj/tipo_c.tscn" type="PackedScene" id=1]
[ext_resource path="res://kerno/fenestroj/tipo_c1.gd" type="Script" id=2]

[node name="tipo_c1" type="Popup"]
visible = true
margin_right = 200.0
margin_bottom = 200.0
rect_min_size = Vector2( 200, 200 )
mouse_default_cursor_shape = 6
popup_exclusive = true
script = ExtResource( 2 )
__meta__ = {
"_edit_use_anchors_": false
}

[node name="tipo_c" parent="." instance=ExtResource( 1 )]
anchor_right = 1.0
anchor_bottom = 1.0
margin_right = 0.0
margin_bottom = 0.0

[node name="HBox_buttons" type="HBoxContainer" parent="tipo_c"]
anchor_right = 1.0
margin_right = 1.52588e-05
margin_bottom = 23.0
__meta__ = {
"_edit_use_anchors_": true
}

[node name="menuo_name" type="Label" parent="tipo_c/HBox_buttons"]
margin_top = 3.0
margin_right = 177.0
margin_bottom = 20.0
size_flags_horizontal = 3
text = "tipo_c1"
align = 1
clip_text = true

[node name="Button_x" type="Button" parent="tipo_c/HBox_buttons"]
margin_left = 181.0
margin_right = 200.0
margin_bottom = 23.0
rect_min_size = Vector2( 19, 23 )
size_flags_horizontal = 8
text = "x"
__meta__ = {
"_edit_use_anchors_": false
}
[connection signal="button_up" from="tipo_c/HBox_buttons/Button_x" to="." method="_on_Button_x_button_up"]
