<?xml version="1.0" encoding="UTF-8" standalone="no"?>
<svg
   xmlns:dc="http://purl.org/dc/elements/1.1/"
   xmlns:cc="http://creativecommons.org/ns#"
   xmlns:rdf="http://www.w3.org/1999/02/22-rdf-syntax-ns#"
   xmlns:svg="http://www.w3.org/2000/svg"
   xmlns="http://www.w3.org/2000/svg"
   xmlns:sodipodi="http://sodipodi.sourceforge.net/DTD/sodipodi-0.dtd"
   xmlns:inkscape="http://www.inkscape.org/namespaces/inkscape"
   sodipodi:docname="rotacio_2.svg"
   inkscape:version="1.0 (6e3e5246a0, 2020-05-07)"
   id="svg8"
   version="1.1"
   viewBox="0 0 27 27"
   height="27"
   width="27">
  <defs
     id="defs2" />
  <sodipodi:namedview
     inkscape:snap-bbox-midpoints="true"
     inkscape:snap-center="false"
     id="base"
     pagecolor="#ffffff"
     bordercolor="#666666"
     borderopacity="1.0"
     inkscape:pageopacity="0.0"
     inkscape:pageshadow="2"
     inkscape:zoom="11.313709"
     inkscape:cx="13.478898"
     inkscape:cy="18.758021"
     inkscape:document-units="px"
     inkscape:current-layer="layer1"
     inkscape:document-rotation="0"
     showgrid="false"
     inkscape:snap-grids="false"
     inkscape:object-nodes="true"
     inkscape:snap-object-midpoints="true"
     inkscape:snap-others="true"
     inkscape:snap-bbox="true"
     inkscape:snap-bbox-edge-midpoints="true"
     inkscape:window-width="1528"
     inkscape:window-height="836"
     inkscape:window-x="72"
     inkscape:window-y="27"
     inkscape:window-maximized="1"
     showguides="true"
     inkscape:guide-bbox="true"
     inkscape:snap-nodes="true"
     inkscape:snap-global="true">
    <inkscape:grid
       type="xygrid"
       id="grid847" />
    <sodipodi:guide
       position="-10.494915,-2.5919525"
       orientation="1,0"
       id="guide4374" />
    <sodipodi:guide
       position="43.30744,-9.5315272"
       orientation="0,-1"
       id="guide4376" />
  </sodipodi:namedview>
  <metadata
     id="metadata5">
    <rdf:RDF>
      <cc:Work
         rdf:about="">
        <dc:format>image/svg+xml</dc:format>
        <dc:type
           rdf:resource="http://purl.org/dc/dcmitype/StillImage" />
        <dc:title />
      </cc:Work>
    </rdf:RDF>
  </metadata>
  <g
     inkscape:label="Слой 1"
     inkscape:groupmode="layer"
     id="layer1">
    <ellipse
       cy="18.913635"
       cx="2.7071111"
       id="path1365-7"
       style="opacity:1;fill:none;fill-opacity:1;stroke:#ffffff;stroke-width:0.755906;stroke-miterlimit:4;stroke-dasharray:4.53543, 4.53543;stroke-dashoffset:0;stroke-opacity:1"
       rx="10.300658"
       ry="10.294854"
       transform="rotate(-36.782119)" />
    <ellipse
       style="opacity:1;fill:none;fill-opacity:1;stroke:#ffffff;stroke-width:0.755906;stroke-miterlimit:4;stroke-dasharray:4.53543, 4.53543;stroke-dashoffset:1.81417;stroke-opacity:1"
       id="path1365-7-5"
       cx="-0.28869686"
       cy="19.089701"
       rx="7.5941138"
       ry="7.5898342"
       transform="rotate(-45.866428)" />
    <circle
       r="12.84879"
       cy="13.5"
       cx="13.5"
       id="path1365"
       style="fill:none;fill-opacity:1;stroke:#ffffff;stroke-width:1.30242;stroke-miterlimit:4;stroke-dasharray:none;stroke-dashoffset:0.46;stroke-opacity:1" />
    <circle
       style="fill:none;fill-opacity:1;stroke:#ffffff;stroke-width:0.9;stroke-miterlimit:4;stroke-dasharray:none;stroke-dashoffset:0.46;stroke-opacity:1"
       id="path1365-6"
       cx="13.499999"
       cy="13.499999"
       r="4.5483317" />
  </g>
  <sodipodi:guide
     position="0,250"
     orientation="0,1"
     inkscape:label="baseline"
     id="guide3190" />
  <sodipodi:guide
     position="0,1000"
     orientation="0,1"
     inkscape:label="ascender"
     id="guide3192" />
  <sodipodi:guide
     position="0,1000"
     orientation="0,1"
     inkscape:label="caps"
     id="guide3194" />
  <sodipodi:guide
     position="0,750"
     orientation="0,1"
     inkscape:label="xheight"
     id="guide3196" />
  <sodipodi:guide
     position="0,0"
     orientation="0,1"
     inkscape:label="descender"
     id="guide3198" />
  <sodipodi:guide
     id="guide4357"
     inkscape:label="baseline"
     orientation="0,1"
     position="0,250" />
  <sodipodi:guide
     id="guide4359"
     inkscape:label="ascender"
     orientation="0,1"
     position="0,1000" />
  <sodipodi:guide
     id="guide4361"
     inkscape:label="caps"
     orientation="0,1"
     position="0,1000" />
  <sodipodi:guide
     id="guide4363"
     inkscape:label="xheight"
     orientation="0,1"
     position="0,750" />
  <sodipodi:guide
     id="guide4365"
     inkscape:label="descender"
     orientation="0,1"
     position="0,0" />
  <sodipodi:guide
     position="0,250"
     orientation="0,1"
     inkscape:label="baseline"
     id="guide10111" />
  <sodipodi:guide
     position="0,1000"
     orientation="0,1"
     inkscape:label="ascender"
     id="guide10113" />
  <sodipodi:guide
     position="0,1000"
     orientation="0,1"
     inkscape:label="caps"
     id="guide10115" />
  <sodipodi:guide
     position="0,750"
     orientation="0,1"
     inkscape:label="xheight"
     id="guide10117" />
  <sodipodi:guide
     position="0,0"
     orientation="0,1"
     inkscape:label="descender"
     id="guide10119" />
  <sodipodi:guide
     id="guide2802"
     inkscape:label="baseline"
     orientation="0,1"
     position="0,250" />
  <sodipodi:guide
     id="guide2804"
     inkscape:label="ascender"
     orientation="0,1"
     position="0,1000" />
  <sodipodi:guide
     id="guide2806"
     inkscape:label="caps"
     orientation="0,1"
     position="0,1000" />
  <sodipodi:guide
     id="guide2808"
     inkscape:label="xheight"
     orientation="0,1"
     position="0,750" />
  <sodipodi:guide
     id="guide2810"
     inkscape:label="descender"
     orientation="0,1"
     position="0,0" />
  <sodipodi:guide
     id="guide2942"
     inkscape:label="baseline"
     orientation="0,1"
     position="0,250" />
  <sodipodi:guide
     id="guide2944"
     inkscape:label="ascender"
     orientation="0,1"
     position="0,1000" />
  <sodipodi:guide
     id="guide2946"
     inkscape:label="caps"
     orientation="0,1"
     position="0,1000" />
  <sodipodi:guide
     id="guide2948"
     inkscape:label="xheight"
     orientation="0,1"
     position="0,750" />
  <sodipodi:guide
     id="guide2950"
     inkscape:label="descender"
     orientation="0,1"
     position="0,0" />
  <sodipodi:guide
     id="guide3099"
     inkscape:label="baseline"
     orientation="0,1"
     position="0,250" />
  <sodipodi:guide
     id="guide3101"
     inkscape:label="ascender"
     orientation="0,1"
     position="0,1000" />
  <sodipodi:guide
     id="guide3103"
     inkscape:label="caps"
     orientation="0,1"
     position="0,1000" />
  <sodipodi:guide
     id="guide3105"
     inkscape:label="xheight"
     orientation="0,1"
     position="0,750" />
  <sodipodi:guide
     id="guide3107"
     inkscape:label="descender"
     orientation="0,1"
     position="0,0" />
</svg>
