[gd_scene load_steps=3 format=2]

[ext_resource path="res://blokoj/kosmostacioj/resursoj/hangaro/hangar.mesh" type="ArrayMesh" id=1]




[sub_resource type="ConcavePolygonShape" id=1]
data = PoolVector3Array( 36, 20, -35, 36, 0, 119.106, 36, 0, -35, 36, 20, -35, 36, 20, 119.106, 36, 0, 119.106, -36, 20, 119.106, -36, 0, -35, -36, 0, 119.106, -36, 20, 119.106, -36, 20, -35, -36, 0, -35, 36, 0, 119.106, -36, 0, -35, 36, 0, -35, 36, 0, 119.106, -36, 0, 119.106, -36, 0, -35, 36, 20, 119.106, -36, 0, 119.106, 36, 0, 119.106, 36, 20, 119.106, -36, 20, 119.106, -36, 0, 119.106 )

[node name="hangar" type="MeshInstance"]
mesh = ExtResource( 1 )
material/0 = null

[node name="StaticBody" type="StaticBody" parent="."]

[node name="CollisionShape" type="CollisionShape" parent="StaticBody"]
shape = SubResource( 1 )
