[gd_scene load_steps=4 format=2]

[ext_resource path="res://GateEnergy.tres" type="Material" id=1]
[ext_resource path="res://GateEnergy.glb" type="PackedScene" id=2]

[sub_resource type="Animation" id=1]
resource_name = "gateEnergy"
loop = true
tracks/0/type = "value"
tracks/0/path = NodePath("Cylinder:rotation_degrees")
tracks/0/interp = 1
tracks/0/loop_wrap = true
tracks/0/imported = false
tracks/0/enabled = true
tracks/0/keys = {
"times": PoolRealArray( 0, 1 ),
"transitions": PoolRealArray( 1, 1 ),
"update": 0,
"values": [ Vector3( 0, 90, 90 ), Vector3( 360, 90, 90 ) ]
}

[node name="GateEnergy" instance=ExtResource( 2 )]

[node name="Cylinder" parent="." index="0"]
transform = Transform( 34.822, 5.72691e-07, 16.0364, 16.0364, -2.61266e-06, -34.822, 5.72691e-07, 38.3372, -2.61266e-06, 0, 0, 0 )
material/0 = ExtResource( 1 )

[node name="AnimationPlayer" type="AnimationPlayer" parent="." index="1"]
autoplay = "gateEnergy"
playback_speed = 0.01
anims/gateEnergy = SubResource( 1 )
