[gd_scene load_steps=3 format=2]

[ext_resource path="res://kerno/fenestroj/tipo_a1.tscn" type="PackedScene" id=2]
[ext_resource path="res://blokoj/objektoj/skriptoj/objektoj.gd" type="Script" id=3]

[node name="Objektoj" instance=ExtResource( 2 )]
margin_left = 704.816
margin_top = 263.888
margin_right = 704.816
margin_bottom = 263.888
script = ExtResource( 3 )

[node name="VBox" parent="." index="0"]
visible = false

[node name="menuo_name" parent="VBox/HBox_top/top_texture2/HBox_buttons" index="0"]
margin_right = 155.0
text = "Объекты"

[node name="Button_fix" parent="VBox/HBox_top/top_texture2/HBox_buttons" index="1"]
visible = false

[node name="Button_" parent="VBox/HBox_top/top_texture2/HBox_buttons" index="2"]
visible = false

[node name="Button_full" parent="VBox/HBox_top/top_texture2/HBox_buttons" index="3"]
visible = false

[node name="ItemList" type="ItemList" parent="VBox/body_texture" index="1"]
anchor_right = 1.0
anchor_bottom = 1.0
__meta__ = {
"_edit_use_anchors_": false
}
[connection signal="item_selected" from="VBox/body_texture/ItemList" to="." method="_on_ItemList_item_selected"]
